{
	// Place your snippets for typescriptreact here. Each snippet is defined under a snippet name and has a prefix, body and 
	// description. The prefix is what is used to trigger the snippet and the body will be expanded and inserted. Possible variables are:
	// $1, $2 for tab stops, $0 for the final cursor position, and ${1:label}, ${2:another} for placeholders. Placeholders with the 
	// same ids are connected.
	// Example:
	// "Print to console": {
	// 	"prefix": "log",
	// 	"body": [
	// 		"console.log('$1');",
	// 		"$2"
	// 	],
	// 	"description": "Log output to console"
	// }
	"react/component file": {
		"prefix": "#component file",
		"body": "import React from \"react\";\n\nconst $1 = ({$2}: {${2}${3}}) => ($4);"
	},
	"react/component": {
		"prefix": "#component",
		"body": "const $1 = ({$2}: {${2}${3}}) => ($4);"
	},
	"react/useState": {
		"prefix": "#useState",
		"body": "const [$1, set${1/(.)/${1:/upcase}/}] = useState($2);"
	},
	"react/useEffect": {
		"prefix": "#useEffect",
		"body": "useEffect(() => {$1}, [$2])"
	},
	"react/useMemo": {
		"prefix": "#useMemo",
		"body": "useMemo(() => $1, [$2])"
	},
	"react/useCallback": {
		"prefix": "#useCallback",
		"body": "useCallback(() => $1, [$2])"
	}
}
